#Command: C:\Windows\system32\dwwin.exe -x -s 192
^D:\NEW_CENTURY\VISUALS工作空间\RFID_TAG\RFID_TAG\RFID_TAG.CPP
C:\USERS\KAI\APPDATA\LOCAL\MICROSOFT\WINDOWS\WER\REPORTARCHIVE\APPCRASH_C000009C_205D69F6AB74FD2E308992BA3998E88B816ACB_18072B8B\REPORT.WER
#Command: C:\Windows\system32\dwwin.exe -x -s 192
^D:\NEW_CENTURY\VISUALS工作空间\RFID_TAG\RFID_TAG\RFID_TAG.CPP
C:\USERS\KAI\APPDATA\LOCAL\MICROSOFT\WINDOWS\WER\REPORTARCHIVE\APPCRASH_C000009C_205D69F6AB74FD2E308992BA3998E88B816ACB_02AFECC7\REPORT.WER
#Command: C:\Windows\system32\dwwin.exe -x -s 192
^D:\NEW_CENTURY\VISUALS工作空间\RFID_TAG\RFID_TAG\RFID_TAG.CPP
C:\USERS\KAI\APPDATA\LOCAL\MICROSOFT\WINDOWS\WER\REPORTARCHIVE\APPCRASH_C000009C_205D69F6AB74FD2E308992BA3998E88B816ACB_18E5D9A5\REPORT.WER
#Command: C:\Windows\system32\dwwin.exe -x -s 192
^D:\NEW_CENTURY\VISUALS工作空间\RFID_TAG\RFID_TAG\RFID_TAG.CPP
C:\USERS\KAI\APPDATA\LOCAL\MICROSOFT\WINDOWS\WER\REPORTARCHIVE\APPCRASH_C000009C_205D69F6AB74FD2E308992BA3998E88B816ACB_1B325846\REPORT.WER
#Command: C:\Windows\system32\dwwin.exe -x -s 192
^D:\NEW_CENTURY\VISUALS工作空间\RFID_TAG\RFID_TAG\RFID_TAG.CPP
C:\USERS\KAI\APPDATA\LOCAL\MICROSOFT\WINDOWS\WER\REPORTARCHIVE\APPCRASH_C000009C_205D69F6AB74FD2E308992BA3998E88B816ACB_1E374726\REPORT.WER
#Command: C:\Windows\system32\dwwin.exe -x -s 192
^D:\NEW_CENTURY\VISUALS工作空间\RFID_TAG\RFID_TAG\RFID_TAG.CPP
C:\USERS\KAI\APPDATA\LOCAL\MICROSOFT\WINDOWS\WER\REPORTARCHIVE\APPCRASH_C000009C_205D69F6AB74FD2E308992BA3998E88B816ACB_143A120B\REPORT.WER
#Command: C:\Windows\system32\dwwin.exe -x -s 192
^D:\NEW_CENTURY\VISUALS工作空间\RFID_TAG\RFID_TAG\RFID_TAG.CPP
C:\USERS\KAI\APPDATA\LOCAL\MICROSOFT\WINDOWS\WER\REPORTARCHIVE\APPCRASH_C000009C_205D69F6AB74FD2E308992BA3998E88B816ACB_160AADBD\REPORT.WER
